Tidyseqs workflow
…
seqs <- extract_seqs_long(folder_path, type="absolute") |> 
            filter(sample.ID %in% its2_profiles$sample.ID)

c) drop samples by name

remove samples by sample.ID either by full names or by partial
matches:

### First option: drop samples after importing using basic tidyverse:

seqs <- extract_seqs_long(folder_path, type="absolute") 

seqs %>% filter(!sample.ID %in% c("AU18_0359", "AU18_0457")) # remove two samples

## # A tibble: 2,724 × 3
##    sample.ID seq.ID    abundance
##    <chr>     <chr>         <int>
##  1 AU18_1040 C22            3896
##  2 AU18_1040 C22ad          1734
##  3 AU18_1040 C3              769
##  4 AU18_1040 C22ah           265
##  5 AU18_1040 1611788_C       131
##  6 AU18_1040 1645568_C       121
##  7 AU18_1040 1147954_C       100
##  8 AU18_1040 1148411_C        82
##  9 AU18_1040 37253_C          41
## 10 AU18_1040 1630543_C        49
## # ℹ 2,714 more rows

seqs %>% filter(!sample.ID %in% !grepl("AU18_03|AU18_04", sample.ID)) # remove any AU18_03** or AU18_04**

## # A tibble: 2,743 × 3
##    sample.ID seq.ID    abundance
##    <chr>     <chr>         <int>
##  1 AU18_0457 C22             553
##  2 AU18_0457 C22ad           878
##  3 AU18_0457 C3              269
##  4 AU18_0457 C22ah            27
##  5 AU18_0457 37253_C          31
##  6 AU18_0457 C21               8
##  7 AU18_0457 1612485_C        11
##  8 AU18_0457 1670426_C        10
##  9 AU18_0457 1645877_C        11
## 10 AU18_0359 C22            3463
## # ℹ 2,733 more rows
…
